00000000000000000000000000000000
00000000000000000000000000000001
00000000000000000000000000000010
00000000000000000000000000000011
00000000000000000000000000000100
00000000000000000000000000000101
00000000000000000000000000000110
00000000000000000000000000000111
00000000000000000000000000001111
00000000000000000000000011110000
00000000000000000000111100000000
00000000000000000000100000000000
00000000000000000000000000100000
00000000000000000000000000001001
00000000000000000000000000001100
00000000000000000000000001100000
00000000000000000000000000010000
00000000000000000000000000010001
00000000000000000000000000010010
00000000000000000000000000010011
00000000000000000000000000010100
00000000000000000000000000010101
00000000000000000000000000010110
00000000000000000000000000010111
00000000000000000000000000011000
00000000000000000000000000011001
00000000000000000000000000011010
00000000000000000000000000011011
00000000000000000000000000011100
00000000000000000000000000011101
00000000000000000000000000011110
11111111111111111111111111111111